[
    {
        "day": "Monday",
        "hotspots": [
            {
                "id": 1,
                "startHour": 15,
                "startMinutes": 15,
                "endHour": 16,
                "endMinutes": 20,
                "probability": 85,
                "latitude": 44,
                "longitude": 26
            },
            {
                "id": 2,
                "startHour": 16,
                "startMinutes": 15,
                "endHour": 17,
                "endMinutes": 20,
                "probability": 85,
                "latitude": 43,
                "longitude": 25
            }
        ]
    }
]